%YAML 1.1
%TAG !u! tag:unity3d.com,2011:
--- !u!114 &11400000
MonoBehaviour:
  m_ObjectHideFlags: 0
  m_CorrespondingSourceObject: {fileID: 0}
  m_PrefabInstance: {fileID: 0}
  m_PrefabAsset: {fileID: 0}
  m_GameObject: {fileID: 0}
  m_Enabled: 1
  m_EditorHideFlags: 0
  m_Script: {fileID: 11500000, guid: fb0fd42eb58f477459efa472fba0fe46, type: 3}
  m_Name: Grass
  m_EditorClassIdentifier: 
  title: Fertile soil
  type: 2
  description: Suitable for growing plants.
  terrainSprites:
  - {fileID: 21300000, guid: 5fa04caafdffff34f87d51f7f1a29591, type: 3}
  topSprites: []
  shadowSprites: []
  animationSpeed: 0
