%YAML 1.1
%TAG !u! tag:unity3d.com,2011:
--- !u!114 &11400000
MonoBehaviour:
  m_ObjectHideFlags: 0
  m_CorrespondingSourceObject: {fileID: 0}
  m_PrefabInstance: {fileID: 0}
  m_PrefabAsset: {fileID: 0}
  m_GameObject: {fileID: 0}
  m_Enabled: 1
  m_EditorHideFlags: 0
  m_Script: {fileID: 11500000, guid: 7d85068005e131d4495e5750bddb01fc, type: 3}
  m_Name: Hard metal 6
  m_EditorClassIdentifier: 
  pattern:
  - elements: 020000000000000000000000
  - elements: 000000000300000000000000
  - elements: 000000000000000003000000
  type: 3
